{
  "resourceType": "Parameters",
  "parameter": [
    {
      "name": "patient",
      "resource": {
        "resourceType": "Patient",
        "id": "202414",
        "meta": {
          "versionId": "3",
          "lastUpdated": "2016-12-16T14:33:42.376-05:00"
        },
        "text": {
          "status": "generated",
          "div": "<div xmlns=\"http://www.w3.org/1999/xhtml\"><div class=\"hapiHeaderText\">Jane <b>PATIENT </b></div><table class=\"hapiPropertyTable\"><tbody><tr><td>Identifier</td><td>zika-example</td></tr><tr><td>Date of birth</td><td><span>04 April 1992</span></td></tr></tbody></table></div>"
        },
        "identifier": [
          {
            "value": "zika-example"
          }
        ],
        "active": true,
        "name": [
          {
            "use": "official",
            "family": [
              "Patient"
            ],
            "given": [
              "Jane"
            ]
          },
          {
            "use": "usual",
            "given": [
              "Jane"
            ]
          }
        ],
        "gender": "female",
        "birthDate": "1992-04-04",
        "_birthDate": {
          "extension": [
            {
              "url": "http://hl7.org/fhir/StructureDefinition/patient-birthTime",
              "valueDateTime": "1992-04-04T13:33:47-07:00"
            }
          ]
        }
      }
    },
    {
      "name": "inputData",
      "resource": {
        "resourceType": "Bundle",
        "type": "document",
        "total": 3,
        "entry": [
          {
            "resource": {
              "resourceType": "Observation",
              "id": "202415",
              "meta": {
                "versionId": "2",
                "lastUpdated": "2016-12-16T14:38:43.747-05:00"
              },
              "status": "final",
              "code": {
                "coding": [
                  {
                    "system": "http://snomed.info/sct",
                    "code": "77386006"
                  }
                ]
              },
              "subject": {
                "reference": "Patient/202414"
              },
              "effectiveDateTime": "2016-12-14",
              "valueString": "True"
            }
          },
          {
            "resource": {
              "resourceType": "QuestionnaireResponse",
              "questionnaire": {
                "reference": "Questionnaire/202416"
              },
              "status": "completed",
              "subject": {
                "reference": "Patient/202414"
              },
              "authored": "2016-12-16T21:21:45.244Z",
              "item": [
                {
                  "linkId": "1",
                  "answer": [
                    {
                      "valueBoolean": "false"
                    }
                  ]
                },
                {
                  "linkId": "2",
                  "answer": [
                    {
                      "valueBoolean": "false"
                    }
                  ]
                },
                {
                  "linkId": "4",
                  "answer": [
                    {
                      "valueBoolean": "false"
                    }
                  ]
                },
                {
                  "linkId": "6",
                  "answer": [
                    {
                      "valueBoolean": "true"
                    }
                  ]
                }
              ]
            }
          },
          {
            "resource": {
              "resourceType": "Questionnaire",
              "id": "202416",
              "meta": {
                "versionId": "1",
                "lastUpdated": "2016-12-15T17:19:27.173-05:00"
              },
              "text": {
                "status": "generated",
                "div": "<div xmlns=\"http://www.w3.org/1999/xhtml\">\n      <pre>\n      </pre>\n    </div>"
              },
              "url": "http://example.org/Questionnaire/zika-virus-exposure-assessment",
              "status": "draft",
              "date": "2016-11-14",
              "title": "Example Zika Virus Exposure Assessment",
              "subjectType": [
                "Patient"
              ],
              "item": [
                {
                  "extension": [
                    {
                      "url": "http://example.org/additional-information",
                      "valueAttachment": {
                        "url": "http://www.cdc.gov/zika/geo/index.html",
                        "title": "Areas with active Zika virus transmission/exposure risk"
                      }
                    }
                  ],
                  "linkId": "1",
                  "concept": [
                    {
                      "system": "http://example.org/questionnaires",
                      "code": "CDE: Resident of or Frequent Traveler to Zika Area"
                    }
                  ],
                  "text": "Is the patient a resident of, or does the patient travel frequently to, an area with active Zika transmission?  <br>See <a href=\"http://www.cdc.gov/zika/geo/index.html\" target=\"_blank\">link</a> for areas with active Zika transmission/exposure risk.",
                  "type": "boolean"
                },
                {
                  "extension": [
                    {
                      "url": "http://example.org/additional-information",
                      "valueAttachment": {
                        "url": "http://www.cdc.gov/zika/geo/index.html",
                        "title": "Areas with active Zika virus transmission/exposure risk"
                      }
                    }
                  ],
                  "linkId": "2",
                  "concept": [
                    {
                      "system": "http://example.org/questionnaires",
                      "code": "CDE: Recent Travel to Zika Area"
                    }
                  ],
                  "text": "Has the patient recently traveled to  an area with active Zika transmission?  <br>See <a href=\"http://www.cdc.gov/zika/geo/index.html\" target=\"_blank\">link</a> for areas with active Zika transmission/exposure risk.",
                  "type": "boolean",
                  "enableWhen": [
                    {
                      "question": "1",
                      "answerBoolean": false
                    }
                  ]
                },
                {
                  "linkId": "3",
                  "concept": [
                    {
                      "system": "http://example.org/questionnaires",
                      "code": "CDE: Time Since Returned From Travel"
                    }
                  ],
                  "text": "How many weeks has it been since the patient returned?",
                  "type": "decimal",
                  "enableWhen": [
                    {
                      "question": "2",
                      "answerBoolean": true
                    }
                  ]
                },
                {
                  "extension": [
                    {
                      "url": "http://example.org/additional-information",
                      "valueAttachment": {
                        "url": "http://www.cdc.gov/zika/geo/index.html",
                        "title": "Areas with active Zika virus transmission/exposure risk"
                      }
                    }
                  ],
                  "linkId": "4",
                  "concept": [
                    {
                      "system": "http://example.org/questionnaires",
                      "code": "CDE: Recent Sexual Encounter with Traveler to Zika Area"
                    }
                  ],
                  "text": "Has the patient recently had condomless sex with a partner that has travelled in an area with active Zika transmission?  <br>See <a href=\"http://www.cdc.gov/zika/geo/index.html\" target=\"_blank\">link</a> for areas with active Zika transmission/exposure risk.",
                  "type": "boolean",
                  "enableWhen": [
                    {
                      "question": "2",
                      "answerBoolean": false
                    }
                  ]
                },
                {
                  "linkId": "5",
                  "concept": [
                    {
                      "system": "http://example.org/questionnaires",
                      "code": "CDE: Time Since Sexual Encounter"
                    }
                  ],
                  "text": "How many weeks has it been since the patient's last condomless sexual encounter?",
                  "type": "decimal",
                  "enableWhen": [
                    {
                      "question": "4",
                      "answerBoolean": true
                    }
                  ]
                },
                {
                  "extension": [
                    {
                      "url": "http://example.org/additional-information",
                      "valueAttachment": {
                        "url": "http://www.cdc.gov/zika/geo/index.html",
                        "title": "Areas with active Zika virus transmission/exposure risk"
                      }
                    }
                  ],
                  "linkId": "6",
                  "concept": [
                    {
                      "system": "http://example.org/questionnaires",
                      "code": "CDE: Planned Travel to Zika Area"
                    }
                  ],
                  "text": "Does the patient plan to travel to an area with active Zika transmission?  <br>See <a href=\"http://www.cdc.gov/zika/geo/index.html\" target=\"_blank\">link</a> for areas with active Zika transmission/exposure risk.",
                  "type": "boolean",
                  "enableWhen": [
                    {
                      "question": "4",
                      "answerBoolean": false
                    }
                  ]
                },
                {
                  "extension": [
                    {
                      "url": "http://example.org/additional-information",
                      "valueAttachment": {
                        "url": "http://www.cdc.gov/zika/geo/index.html",
                        "title": "Areas with active Zika virus transmission/exposure risk"
                      }
                    }
                  ],
                  "linkId": "7",
                  "concept": [
                    {
                      "system": "http://example.org/questionnaires",
                      "code": "CDE: Symptomatic for Zika"
                    }
                  ],
                  "text": "Is the patient symptomatic for Zika infection?",
                  "type": "boolean",
                  "enableWhen": [
                    {
                      "question": "1",
                      "answerBoolean": true
                    },
                    {
                      "question": "2",
                      "answerBoolean": true
                    },
                    {
                      "question": "4",
                      "answerBoolean": true
                    }
                  ]
                },
                {
                  "linkId": "8",
                  "concept": [
                    {
                      "system": "http://example.org/questionnaires",
                      "code": "CDE: Time Between Potential Zika Exposure and Symptoms"
                    }
                  ],
                  "text": "How many weeks elapsed between the patient's potential Zika exposure and symptoms?",
                  "type": "decimal",
                  "enableWhen": [
                    {
                      "question": "7",
                      "answerBoolean": true
                    }
                  ]
                }
              ]
            }
          }
        ]
      }
    }
  ]
}